^C:\USERS\ETHAN\DESKTOP\PLAYING-CARDS-C-SP-2022\MDW.PLAYINGCARDS\MAIN.CPP
C:\USERS\ETHAN\DESKTOP\PLAYING-CARDS-C-SP-2022\MDW.PLAYINGCARDS\DEBUG\VC142.PDB
C:\USERS\ETHAN\DESKTOP\PLAYING-CARDS-C-SP-2022\MDW.PLAYINGCARDS\DEBUG\VC142.IDB
C:\USERS\ETHAN\DESKTOP\PLAYING-CARDS-C-SP-2022\MDW.PLAYINGCARDS\DEBUG\MAIN.OBJ
